{
  "type": "model",
  "series": "16",
  "model": "olimex-a20-olinuxino-lime2",
  "architecture": "armhf",
  "kernel": "olimex-a20-olinuxino-lime2-linux",
  "gadget": "olimex-a20-olinuxino-lime2",
  "authority-id": "JBnNNIwM0UkIctEoX5NQZYvef4rFeUc2",
  "brand-id": "JBnNNIwM0UkIctEoX5NQZYvef4rFeUc2",
  "timestamp": "2017-07-13T09:57:06+00:00"
}
